%YAML 1.1
%TAG !u! tag:unity3d.com,2011:
--- !u!114 &11400000
MonoBehaviour:
  m_ObjectHideFlags: 0
  m_CorrespondingSourceObject: {fileID: 0}
  m_PrefabInstance: {fileID: 0}
  m_PrefabAsset: {fileID: 0}
  m_GameObject: {fileID: 0}
  m_Enabled: 1
  m_EditorHideFlags: 0
  m_Script: {fileID: 11500000, guid: e747f90f2784d494989ffed60f54ca2d, type: 3}
  m_Name: MagnetSkill
  m_EditorClassIdentifier: 
  skillName: Magnet
  description: 
  icon: {fileID: 0}
  cooldown: 1
  duration: 10
  state: 0
  magnetPrefab: {fileID: 2488303504100842815, guid: b2f7edf1028e0b64c8bf6339ab15e574,
    type: 3}
  magnetForce: 200
  magnetDistance: 100
